This file contains any messages produced by compilers while
running configure, to aid debugging if configure makes a mistake.

It was created by libusb configure 1.0.19, which was
generated by GNU Autoconf 2.69.  Invocation command line was

  $ ./configure --target=arm-buildroot-linux-gnueabihf --host=arm-buildroot-linux-gnueabihf --build=x86_64-unknown-linux-gnu --prefix=/usr --exec-prefix=/usr --sysconfdir=/etc --localstatedir=/var --program-prefix= --disable-gtk-doc --disable-gtk-doc-html --disable-doc --disable-docs --disable-documentation --with-xmlto=no --with-fop=no --disable-dependency-tracking --enable-ipv6 --disable-static --enable-shared

## --------- ##
## Platform. ##
## --------- ##

hostname = a07b-pc
uname -m = x86_64
uname -r = 3.13.0-34-generic
uname -s = Linux
uname -v = #60-Ubuntu SMP Wed Aug 13 15:45:27 UTC 2014

/usr/bin/uname -p = unknown
/bin/uname -X     = unknown

/bin/arch              = unknown
/usr/bin/arch -k       = unknown
/usr/convex/getsysinfo = unknown
/usr/bin/hostinfo      = unknown
/bin/machine           = unknown
/usr/bin/oslevel       = unknown
/bin/universe          = unknown

PATH: /home/redsuser/Desktop/reptar_soft/src/buildroot-rootfs-qt-xeno/host/bin
PATH: /home/redsuser/Desktop/reptar_soft/src/buildroot-rootfs-qt-xeno/host/sbin
PATH: /home/redsuser/Desktop/reptar_soft/src/buildroot-rootfs-qt-xeno/host/usr/bin
PATH: /home/redsuser/Desktop/reptar_soft/src/buildroot-rootfs-qt-xeno/host/usr/sbin
PATH: /opt/EDA/mentor/questaformal/linux_x86_64/bin
PATH: /opt/linaro-arm-linux-gnueabihf/bin
PATH: /opt/i686-pc-linux-gnu/usr/bin
PATH: /opt/arm-2011.03/bin
PATH: /opt/cc/i686-pc-linux-gnu/usr/bin
PATH: /opt/rtems/4.11/bin
PATH: /opt/bin
PATH: /usr/local/sbin
PATH: /usr/local/bin
PATH: /usr/sbin
PATH: /usr/bin
PATH: /sbin
PATH: /bin
PATH: /usr/games
PATH: /usr/local/games
PATH: /opt/EDA/altera/13.0/quartus/bin/
PATH: /opt/EDA/altera/13.0/quartus/linux64/
PATH: /usr/lib/jvm/java-8-oracle/bin
PATH: /usr/lib/jvm/java-8-oracle/db/bin
PATH: /usr/lib/jvm/java-8-oracle/jre/bin
PATH: /opt/utilities/leJOS_NXJ_0.9.1beta-3/bin/
PATH: /opt/EDA/mentor/questasim/10.2/questasim/bin/
PATH: /opt/EDA/Xilinx/14.6/ISE_DS/ISE/bin/lin64
PATH: /opt/EDA/Xilinx/Vivado/2014.4/bin
PATH: /opt/EDA/altera/13.0/quartus/bin/
PATH: /opt/EDA/altera/13.0/quartus/linux64/
PATH: /usr/lib/jvm/java-8-oracle/bin
PATH: /usr/lib/jvm/java-8-oracle/db/bin
PATH: /usr/lib/jvm/java-8-oracle/jre/bin
PATH: /opt/utilities/leJOS_NXJ_0.9.1beta-3/bin/
PATH: /opt/EDA/mentor/questasim/10.2/questasim/bin/
PATH: /opt/EDA/Xilinx/14.6/ISE_DS/ISE/bin/lin64
PATH: /opt/EDA/Xilinx/Vivado/2014.4/bin


## ----------- ##
## Core tests. ##
## ----------- ##

configure:2416: checking for a BSD-compatible install
configure:2484: result: /usr/bin/install -c
configure:2495: checking whether build environment is sane
configure:2550: result: yes
configure:2609: checking for arm-buildroot-linux-gnueabihf-strip
configure:2636: result: /home/redsuser/Desktop/reptar_soft/src/buildroot-rootfs-qt-xeno/host/usr/bin/arm-linux-gnueabihf-strip
configure:2701: checking for a thread-safe mkdir -p
configure:2740: result: /bin/mkdir -p
configure:2747: checking for gawk
configure:2777: result: no
configure:2747: checking for mawk
configure:2763: found /usr/bin/mawk
configure:2774: result: mawk
configure:2785: checking whether make sets $(MAKE)
configure:2807: result: yes
configure:2836: checking whether make supports nested variables
configure:2853: result: yes
configure:2979: checking whether to enable maintainer-specific portions of Makefiles
configure:2988: result: no
configure:3017: checking whether make supports nested variables
configure:3034: result: yes
configure:3055: checking for arm-buildroot-linux-gnueabihf-gcc
configure:3082: result: /home/redsuser/Desktop/reptar_soft/src/buildroot-rootfs-qt-xeno/host/usr/bin/arm-linux-gnueabihf-gcc
configure:3351: checking for C compiler version
configure:3360: /home/redsuser/Desktop/reptar_soft/src/buildroot-rootfs-qt-xeno/host/usr/bin/arm-linux-gnueabihf-gcc --version >&5
arm-linux-gnueabihf-gcc (Linaro GCC 5.1-2015.08) 5.1.1 20150608
Copyright (C) 2015 Free Software Foundation, Inc.
This is free software; see the source for copying conditions.  There is NO
warranty; not even for MERCHANTABILITY or FITNESS FOR A PARTICULAR PURPOSE.

configure:3371: $? = 0
configure:3360: /home/redsuser/Desktop/reptar_soft/src/buildroot-rootfs-qt-xeno/host/usr/bin/arm-linux-gnueabihf-gcc -v >&5
Using built-in specs.
COLLECT_GCC=/opt/gcc-linaro-5.1-2015.08-x86_64_arm-linux-gnueabihf//bin/arm-linux-gnueabihf-gcc
COLLECT_LTO_WRAPPER=/opt/gcc-linaro-5.1-2015.08-x86_64_arm-linux-gnueabihf/bin/../libexec/gcc/arm-linux-gnueabihf/5.1.1/lto-wrapper
Target: arm-linux-gnueabihf
Configured with: /home/tcwg-buildslave/workspace/tcwg-make-release/label/tcwg-x86_64-ex40/target/arm-linux-gnueabihf/snapshots/gcc-linaro-5.1-2015.08/configure SHELL=/bin/bash --with-bugurl=https://bugs.linaro.org --with-mpc=/home/tcwg-buildslave/workspace/tcwg-make-release/label/tcwg-x86_64-ex40/target/arm-linux-gnueabihf/_build/builds/destdir/x86_64-unknown-linux-gnu --with-mpfr=/home/tcwg-buildslave/workspace/tcwg-make-release/label/tcwg-x86_64-ex40/target/arm-linux-gnueabihf/_build/builds/destdir/x86_64-unknown-linux-gnu --with-gmp=/home/tcwg-buildslave/workspace/tcwg-make-release/label/tcwg-x86_64-ex40/target/arm-linux-gnueabihf/_build/builds/destdir/x86_64-unknown-linux-gnu --with-gnu-as --with-gnu-ld --disable-libstdcxx-pch --disable-libmudflap --with-cloog=no --with-ppl=no --with-isl=no --disable-nls --enable-c99 --with-tune=cortex-a9 --with-arch=armv7-a --with-fpu=vfpv3-d16 --with-float=hard --with-mode=thumb --disable-multilib --enable-multiarch --with-build-sysroot=/home/tcwg-buildslave/workspace/tcwg-make-release/label/tcwg-x86_64-ex40/target/arm-linux-gnueabihf/_build/sysroots/arm-linux-gnueabihf --enable-lto --enable-linker-build-id --enable-long-long --enable-shared --with-sysroot=/home/tcwg-buildslave/workspace/tcwg-make-release/label/tcwg-x86_64-ex40/target/arm-linux-gnueabihf/_build/builds/destdir/x86_64-unknown-linux-gnu/arm-linux-gnueabihf/libc --enable-languages=c,c++,fortran,lto --enable-checking=release --disable-bootstrap --with-bugurl=https://bugs.linaro.org --build=x86_64-unknown-linux-gnu --host=x86_64-unknown-linux-gnu --target=arm-linux-gnueabihf --prefix=/home/tcwg-buildslave/workspace/tcwg-make-release/label/tcwg-x86_64-ex40/target/arm-linux-gnueabihf/_build/builds/destdir/x86_64-unknown-linux-gnu
Thread model: posix
gcc version 5.1.1 20150608 (Linaro GCC 5.1-2015.08) 
configure:3371: $? = 0
configure:3360: /home/redsuser/Desktop/reptar_soft/src/buildroot-rootfs-qt-xeno/host/usr/bin/arm-linux-gnueabihf-gcc -V >&5
arm-linux-gnueabihf-gcc: error: unrecognized command line option '-V'
arm-linux-gnueabihf-gcc: fatal error: no input files
compilation terminated.
configure:3371: $? = 1
configure:3360: /home/redsuser/Desktop/reptar_soft/src/buildroot-rootfs-qt-xeno/host/usr/bin/arm-linux-gnueabihf-gcc -qversion >&5
arm-linux-gnueabihf-gcc: error: unrecognized command line option '-qversion'
arm-linux-gnueabihf-gcc: fatal error: no input files
compilation terminated.
configure:3371: $? = 1
configure:3391: checking whether the C compiler works
configure:3413: /home/redsuser/Desktop/reptar_soft/src/buildroot-rootfs-qt-xeno/host/usr/bin/arm-linux-gnueabihf-gcc -D_LARGEFILE_SOURCE -D_LARGEFILE64_SOURCE -D_FILE_OFFSET_BITS=64  -O3  -D_LARGEFILE_SOURCE -D_LARGEFILE64_SOURCE -D_FILE_OFFSET_BITS=64  conftest.c  >&5
configure:3417: $? = 0
configure:3465: result: yes
configure:3468: checking for C compiler default output file name
configure:3470: result: a.out
configure:3476: checking for suffix of executables
configure:3483: /home/redsuser/Desktop/reptar_soft/src/buildroot-rootfs-qt-xeno/host/usr/bin/arm-linux-gnueabihf-gcc -o conftest -D_LARGEFILE_SOURCE -D_LARGEFILE64_SOURCE -D_FILE_OFFSET_BITS=64  -O3  -D_LARGEFILE_SOURCE -D_LARGEFILE64_SOURCE -D_FILE_OFFSET_BITS=64  conftest.c  >&5
configure:3487: $? = 0
configure:3509: result: 
configure:3531: checking whether we are cross compiling
configure:3569: result: yes
configure:3574: checking for suffix of object files
configure:3596: /home/redsuser/Desktop/reptar_soft/src/buildroot-rootfs-qt-xeno/host/usr/bin/arm-linux-gnueabihf-gcc -c -D_LARGEFILE_SOURCE -D_LARGEFILE64_SOURCE -D_FILE_OFFSET_BITS=64  -O3  -D_LARGEFILE_SOURCE -D_LARGEFILE64_SOURCE -D_FILE_OFFSET_BITS=64 conftest.c >&5
configure:3600: $? = 0
configure:3621: result: o
configure:3625: checking whether we are using the GNU C compiler
configure:3644: /home/redsuser/Desktop/reptar_soft/src/buildroot-rootfs-qt-xeno/host/usr/bin/arm-linux-gnueabihf-gcc -c -D_LARGEFILE_SOURCE -D_LARGEFILE64_SOURCE -D_FILE_OFFSET_BITS=64  -O3  -D_LARGEFILE_SOURCE -D_LARGEFILE64_SOURCE -D_FILE_OFFSET_BITS=64 conftest.c >&5
configure:3644: $? = 0
configure:3653: result: yes
configure:3662: checking whether /home/redsuser/Desktop/reptar_soft/src/buildroot-rootfs-qt-xeno/host/usr/bin/arm-linux-gnueabihf-gcc accepts -g
configure:3682: /home/redsuser/Desktop/reptar_soft/src/buildroot-rootfs-qt-xeno/host/usr/bin/arm-linux-gnueabihf-gcc -c -g -D_LARGEFILE_SOURCE -D_LARGEFILE64_SOURCE -D_FILE_OFFSET_BITS=64 conftest.c >&5
configure:3682: $? = 0
configure:3723: result: yes
configure:3740: checking for /home/redsuser/Desktop/reptar_soft/src/buildroot-rootfs-qt-xeno/host/usr/bin/arm-linux-gnueabihf-gcc option to accept ISO C89
configure:3803: /home/redsuser/Desktop/reptar_soft/src/buildroot-rootfs-qt-xeno/host/usr/bin/arm-linux-gnueabihf-gcc  -c -D_LARGEFILE_SOURCE -D_LARGEFILE64_SOURCE -D_FILE_OFFSET_BITS=64  -O3  -D_LARGEFILE_SOURCE -D_LARGEFILE64_SOURCE -D_FILE_OFFSET_BITS=64 conftest.c >&5
configure:3803: $? = 0
configure:3816: result: none needed
configure:3841: checking whether /home/redsuser/Desktop/reptar_soft/src/buildroot-rootfs-qt-xeno/host/usr/bin/arm-linux-gnueabihf-gcc understands -c and -o together
configure:3863: /home/redsuser/Desktop/reptar_soft/src/buildroot-rootfs-qt-xeno/host/usr/bin/arm-linux-gnueabihf-gcc -c conftest.c -o conftest2.o
configure:3866: $? = 0
configure:3863: /home/redsuser/Desktop/reptar_soft/src/buildroot-rootfs-qt-xeno/host/usr/bin/arm-linux-gnueabihf-gcc -c conftest.c -o conftest2.o
configure:3866: $? = 0
configure:3878: result: yes
configure:3906: checking for style of include used by make
configure:3934: result: GNU
configure:3960: checking dependency style of /home/redsuser/Desktop/reptar_soft/src/buildroot-rootfs-qt-xeno/host/usr/bin/arm-linux-gnueabihf-gcc
configure:4071: result: none
configure:4115: checking build system type
configure:4129: result: x86_64-unknown-linux-gnu
configure:4149: checking host system type
configure:4162: result: arm-buildroot-linux-gnueabihf
configure:4203: checking how to print strings
configure:4230: result: printf
configure:4251: checking for a sed that does not truncate output
configure:4315: result: /bin/sed
configure:4333: checking for grep that handles long lines and -e
configure:4391: result: /bin/grep
configure:4396: checking for egrep
configure:4458: result: /bin/grep -E
configure:4463: checking for fgrep
configure:4525: result: /bin/grep -F
configure:4560: checking for ld used by /home/redsuser/Desktop/reptar_soft/src/buildroot-rootfs-qt-xeno/host/usr/bin/arm-linux-gnueabihf-gcc
configure:4627: result: /home/redsuser/Desktop/reptar_soft/src/buildroot-rootfs-qt-xeno/host/usr/bin/arm-linux-gnueabihf-ld
configure:4634: checking if the linker (/home/redsuser/Desktop/reptar_soft/src/buildroot-rootfs-qt-xeno/host/usr/bin/arm-linux-gnueabihf-ld) is GNU ld
configure:4649: result: yes
configure:4661: checking for BSD- or MS-compatible name lister (nm)
configure:4710: result: /home/redsuser/Desktop/reptar_soft/src/buildroot-rootfs-qt-xeno/host/usr/bin/arm-linux-gnueabihf-nm
configure:4840: checking the name lister (/home/redsuser/Desktop/reptar_soft/src/buildroot-rootfs-qt-xeno/host/usr/bin/arm-linux-gnueabihf-nm) interface
configure:4847: /home/redsuser/Desktop/reptar_soft/src/buildroot-rootfs-qt-xeno/host/usr/bin/arm-linux-gnueabihf-gcc -c -D_LARGEFILE_SOURCE -D_LARGEFILE64_SOURCE -D_FILE_OFFSET_BITS=64  -O3  -D_LARGEFILE_SOURCE -D_LARGEFILE64_SOURCE -D_FILE_OFFSET_BITS=64 conftest.c >&5
configure:4850: /home/redsuser/Desktop/reptar_soft/src/buildroot-rootfs-qt-xeno/host/usr/bin/arm-linux-gnueabihf-nm "conftest.o"
configure:4853: output
00000000 B some_variable
configure:4860: result: BSD nm
configure:4863: checking whether ln -s works
configure:4867: result: yes
configure:4875: checking the maximum length of command line arguments
configure:5005: result: 3458764513820540925
configure:5022: checking whether the shell understands some XSI constructs
configure:5032: result: yes
configure:5036: checking whether the shell understands "+="
configure:5042: result: yes
configure:5077: checking how to convert x86_64-unknown-linux-gnu file names to arm-buildroot-linux-gnueabihf format
configure:5117: result: func_convert_file_noop
configure:5124: checking how to convert x86_64-unknown-linux-gnu file names to toolchain format
configure:5144: result: func_convert_file_noop
configure:5151: checking for /home/redsuser/Desktop/reptar_soft/src/buildroot-rootfs-qt-xeno/host/usr/bin/arm-linux-gnueabihf-ld option to reload object files
configure:5158: result: -r
configure:5192: checking for arm-buildroot-linux-gnueabihf-objdump
configure:5219: result: /home/redsuser/Desktop/reptar_soft/src/buildroot-rootfs-qt-xeno/host/usr/bin/arm-linux-gnueabihf-objdump
configure:5291: checking how to recognize dependent libraries
configure:5493: result: pass_all
configure:5538: checking for arm-buildroot-linux-gnueabihf-dlltool
configure:5568: result: no
configure:5578: checking for dlltool
configure:5608: result: no
configure:5638: checking how to associate runtime and link libraries
configure:5665: result: printf %s\n
configure:5682: checking for arm-buildroot-linux-gnueabihf-ar
configure:5709: result: /home/redsuser/Desktop/reptar_soft/src/buildroot-rootfs-qt-xeno/host/usr/bin/arm-linux-gnueabihf-ar
configure:5790: checking for archiver @FILE support
configure:5807: /home/redsuser/Desktop/reptar_soft/src/buildroot-rootfs-qt-xeno/host/usr/bin/arm-linux-gnueabihf-gcc -c -D_LARGEFILE_SOURCE -D_LARGEFILE64_SOURCE -D_FILE_OFFSET_BITS=64  -O3  -D_LARGEFILE_SOURCE -D_LARGEFILE64_SOURCE -D_FILE_OFFSET_BITS=64 conftest.c >&5
configure:5807: $? = 0
configure:5810: /home/redsuser/Desktop/reptar_soft/src/buildroot-rootfs-qt-xeno/host/usr/bin/arm-linux-gnueabihf-ar cru libconftest.a @conftest.lst >&5
configure:5813: $? = 0
configure:5818: /home/redsuser/Desktop/reptar_soft/src/buildroot-rootfs-qt-xeno/host/usr/bin/arm-linux-gnueabihf-ar cru libconftest.a @conftest.lst >&5
/home/redsuser/Desktop/reptar_soft/src/buildroot-rootfs-qt-xeno/host/usr/bin/arm-linux-gnueabihf-ar: conftest.o: No such file or directory
configure:5821: $? = 1
configure:5833: result: @
configure:5851: checking for arm-buildroot-linux-gnueabihf-strip
configure:5878: result: /home/redsuser/Desktop/reptar_soft/src/buildroot-rootfs-qt-xeno/host/usr/bin/arm-linux-gnueabihf-strip
configure:5950: checking for arm-buildroot-linux-gnueabihf-ranlib
configure:5977: result: /home/redsuser/Desktop/reptar_soft/src/buildroot-rootfs-qt-xeno/host/usr/bin/arm-linux-gnueabihf-ranlib
configure:6119: checking command to parse /home/redsuser/Desktop/reptar_soft/src/buildroot-rootfs-qt-xeno/host/usr/bin/arm-linux-gnueabihf-nm output from /home/redsuser/Desktop/reptar_soft/src/buildroot-rootfs-qt-xeno/host/usr/bin/arm-linux-gnueabihf-gcc object
configure:6239: /home/redsuser/Desktop/reptar_soft/src/buildroot-rootfs-qt-xeno/host/usr/bin/arm-linux-gnueabihf-gcc -c -D_LARGEFILE_SOURCE -D_LARGEFILE64_SOURCE -D_FILE_OFFSET_BITS=64  -O3  -D_LARGEFILE_SOURCE -D_LARGEFILE64_SOURCE -D_FILE_OFFSET_BITS=64 conftest.c >&5
configure:6242: $? = 0
configure:6246: /home/redsuser/Desktop/reptar_soft/src/buildroot-rootfs-qt-xeno/host/usr/bin/arm-linux-gnueabihf-nm conftest.o \| sed -n -e 's/^.*[ ]\([ABCDGIRSTW][ABCDGIRSTW]*\)[ ][ ]*\([_A-Za-z][_A-Za-z0-9]*\)$/\1 \2 \2/p' | sed '/ __gnu_lto/d' \> conftest.nm
configure:6249: $? = 0
configure:6315: /home/redsuser/Desktop/reptar_soft/src/buildroot-rootfs-qt-xeno/host/usr/bin/arm-linux-gnueabihf-gcc -o conftest -D_LARGEFILE_SOURCE -D_LARGEFILE64_SOURCE -D_FILE_OFFSET_BITS=64  -O3  -D_LARGEFILE_SOURCE -D_LARGEFILE64_SOURCE -D_FILE_OFFSET_BITS=64  conftest.c conftstm.o >&5
configure:6318: $? = 0
configure:6356: result: ok
configure:6393: checking for sysroot
configure:6423: result: no
configure:6645: checking for arm-buildroot-linux-gnueabihf-mt
configure:6675: result: no
configure:6685: checking for mt
configure:6701: found /bin/mt
configure:6712: result: mt
configure:6724: WARNING: using cross tools not prefixed with host triplet
configure:6735: checking if mt is a manifest tool
configure:6741: mt '-?'
configure:6749: result: no
configure:7391: checking how to run the C preprocessor
configure:7461: result: /home/redsuser/Desktop/reptar_soft/src/buildroot-rootfs-qt-xeno/host/usr/bin/arm-linux-gnueabihf-cpp
configure:7481: /home/redsuser/Desktop/reptar_soft/src/buildroot-rootfs-qt-xeno/host/usr/bin/arm-linux-gnueabihf-cpp -D_LARGEFILE_SOURCE -D_LARGEFILE64_SOURCE -D_FILE_OFFSET_BITS=64 conftest.c
configure:7481: $? = 0
configure:7495: /home/redsuser/Desktop/reptar_soft/src/buildroot-rootfs-qt-xeno/host/usr/bin/arm-linux-gnueabihf-cpp -D_LARGEFILE_SOURCE -D_LARGEFILE64_SOURCE -D_FILE_OFFSET_BITS=64 conftest.c
conftest.c:11:28: fatal error: ac_nonexistent.h: No such file or directory
compilation terminated.
configure:7495: $? = 1
configure: failed program was:
| /* confdefs.h */
| #define PACKAGE_NAME "libusb"
| #define PACKAGE_TARNAME "libusb"
| #define PACKAGE_VERSION "1.0.19"
| #define PACKAGE_STRING "libusb 1.0.19"
| #define PACKAGE_BUGREPORT "libusb-devel@lists.sourceforge.net"
| #define PACKAGE_URL "http://libusb.info"
| #define PACKAGE "libusb"
| #define VERSION "1.0.19"
| /* end confdefs.h.  */
| #include <ac_nonexistent.h>
configure:7524: checking for ANSI C header files
configure:7544: /home/redsuser/Desktop/reptar_soft/src/buildroot-rootfs-qt-xeno/host/usr/bin/arm-linux-gnueabihf-gcc -c -D_LARGEFILE_SOURCE -D_LARGEFILE64_SOURCE -D_FILE_OFFSET_BITS=64  -O3  -D_LARGEFILE_SOURCE -D_LARGEFILE64_SOURCE -D_FILE_OFFSET_BITS=64 conftest.c >&5
configure:7544: $? = 0
configure:7628: result: yes
configure:7641: checking for sys/types.h
configure:7641: /home/redsuser/Desktop/reptar_soft/src/buildroot-rootfs-qt-xeno/host/usr/bin/arm-linux-gnueabihf-gcc -c -D_LARGEFILE_SOURCE -D_LARGEFILE64_SOURCE -D_FILE_OFFSET_BITS=64  -O3  -D_LARGEFILE_SOURCE -D_LARGEFILE64_SOURCE -D_FILE_OFFSET_BITS=64 conftest.c >&5
configure:7641: $? = 0
configure:7641: result: yes
configure:7641: checking for sys/stat.h
configure:7641: /home/redsuser/Desktop/reptar_soft/src/buildroot-rootfs-qt-xeno/host/usr/bin/arm-linux-gnueabihf-gcc -c -D_LARGEFILE_SOURCE -D_LARGEFILE64_SOURCE -D_FILE_OFFSET_BITS=64  -O3  -D_LARGEFILE_SOURCE -D_LARGEFILE64_SOURCE -D_FILE_OFFSET_BITS=64 conftest.c >&5
configure:7641: $? = 0
configure:7641: result: yes
configure:7641: checking for stdlib.h
configure:7641: /home/redsuser/Desktop/reptar_soft/src/buildroot-rootfs-qt-xeno/host/usr/bin/arm-linux-gnueabihf-gcc -c -D_LARGEFILE_SOURCE -D_LARGEFILE64_SOURCE -D_FILE_OFFSET_BITS=64  -O3  -D_LARGEFILE_SOURCE -D_LARGEFILE64_SOURCE -D_FILE_OFFSET_BITS=64 conftest.c >&5
configure:7641: $? = 0
configure:7641: result: yes
configure:7641: checking for string.h
configure:7641: /home/redsuser/Desktop/reptar_soft/src/buildroot-rootfs-qt-xeno/host/usr/bin/arm-linux-gnueabihf-gcc -c -D_LARGEFILE_SOURCE -D_LARGEFILE64_SOURCE -D_FILE_OFFSET_BITS=64  -O3  -D_LARGEFILE_SOURCE -D_LARGEFILE64_SOURCE -D_FILE_OFFSET_BITS=64 conftest.c >&5
configure:7641: $? = 0
configure:7641: result: yes
configure:7641: checking for memory.h
configure:7641: /home/redsuser/Desktop/reptar_soft/src/buildroot-rootfs-qt-xeno/host/usr/bin/arm-linux-gnueabihf-gcc -c -D_LARGEFILE_SOURCE -D_LARGEFILE64_SOURCE -D_FILE_OFFSET_BITS=64  -O3  -D_LARGEFILE_SOURCE -D_LARGEFILE64_SOURCE -D_FILE_OFFSET_BITS=64 conftest.c >&5
configure:7641: $? = 0
configure:7641: result: yes
configure:7641: checking for strings.h
configure:7641: /home/redsuser/Desktop/reptar_soft/src/buildroot-rootfs-qt-xeno/host/usr/bin/arm-linux-gnueabihf-gcc -c -D_LARGEFILE_SOURCE -D_LARGEFILE64_SOURCE -D_FILE_OFFSET_BITS=64  -O3  -D_LARGEFILE_SOURCE -D_LARGEFILE64_SOURCE -D_FILE_OFFSET_BITS=64 conftest.c >&5
configure:7641: $? = 0
configure:7641: result: yes
configure:7641: checking for inttypes.h
configure:7641: /home/redsuser/Desktop/reptar_soft/src/buildroot-rootfs-qt-xeno/host/usr/bin/arm-linux-gnueabihf-gcc -c -D_LARGEFILE_SOURCE -D_LARGEFILE64_SOURCE -D_FILE_OFFSET_BITS=64  -O3  -D_LARGEFILE_SOURCE -D_LARGEFILE64_SOURCE -D_FILE_OFFSET_BITS=64 conftest.c >&5
configure:7641: $? = 0
configure:7641: result: yes
configure:7641: checking for stdint.h
configure:7641: /home/redsuser/Desktop/reptar_soft/src/buildroot-rootfs-qt-xeno/host/usr/bin/arm-linux-gnueabihf-gcc -c -D_LARGEFILE_SOURCE -D_LARGEFILE64_SOURCE -D_FILE_OFFSET_BITS=64  -O3  -D_LARGEFILE_SOURCE -D_LARGEFILE64_SOURCE -D_FILE_OFFSET_BITS=64 conftest.c >&5
configure:7641: $? = 0
configure:7641: result: yes
configure:7641: checking for unistd.h
configure:7641: /home/redsuser/Desktop/reptar_soft/src/buildroot-rootfs-qt-xeno/host/usr/bin/arm-linux-gnueabihf-gcc -c -D_LARGEFILE_SOURCE -D_LARGEFILE64_SOURCE -D_FILE_OFFSET_BITS=64  -O3  -D_LARGEFILE_SOURCE -D_LARGEFILE64_SOURCE -D_FILE_OFFSET_BITS=64 conftest.c >&5
configure:7641: $? = 0
configure:7641: result: yes
configure:7655: checking for dlfcn.h
configure:7655: /home/redsuser/Desktop/reptar_soft/src/buildroot-rootfs-qt-xeno/host/usr/bin/arm-linux-gnueabihf-gcc -c -D_LARGEFILE_SOURCE -D_LARGEFILE64_SOURCE -D_FILE_OFFSET_BITS=64  -O3  -D_LARGEFILE_SOURCE -D_LARGEFILE64_SOURCE -D_FILE_OFFSET_BITS=64 conftest.c >&5
configure:7655: $? = 0
configure:7655: result: yes
configure:7861: checking for objdir
configure:7876: result: .libs
configure:8147: checking if /home/redsuser/Desktop/reptar_soft/src/buildroot-rootfs-qt-xeno/host/usr/bin/arm-linux-gnueabihf-gcc supports -fno-rtti -fno-exceptions
configure:8165: /home/redsuser/Desktop/reptar_soft/src/buildroot-rootfs-qt-xeno/host/usr/bin/arm-linux-gnueabihf-gcc -c -D_LARGEFILE_SOURCE -D_LARGEFILE64_SOURCE -D_FILE_OFFSET_BITS=64  -O3  -D_LARGEFILE_SOURCE -D_LARGEFILE64_SOURCE -D_FILE_OFFSET_BITS=64 -fno-rtti -fno-exceptions conftest.c >&5
cc1: warning: command line option '-fno-rtti' is valid for C++/ObjC++ but not for C
configure:8169: $? = 0
configure:8182: result: no
configure:8509: checking for /home/redsuser/Desktop/reptar_soft/src/buildroot-rootfs-qt-xeno/host/usr/bin/arm-linux-gnueabihf-gcc option to produce PIC
configure:8516: result: -fPIC -DPIC
configure:8524: checking if /home/redsuser/Desktop/reptar_soft/src/buildroot-rootfs-qt-xeno/host/usr/bin/arm-linux-gnueabihf-gcc PIC flag -fPIC -DPIC works
configure:8542: /home/redsuser/Desktop/reptar_soft/src/buildroot-rootfs-qt-xeno/host/usr/bin/arm-linux-gnueabihf-gcc -c -D_LARGEFILE_SOURCE -D_LARGEFILE64_SOURCE -D_FILE_OFFSET_BITS=64  -O3  -D_LARGEFILE_SOURCE -D_LARGEFILE64_SOURCE -D_FILE_OFFSET_BITS=64 -fPIC -DPIC -DPIC conftest.c >&5
configure:8546: $? = 0
configure:8559: result: yes
configure:8588: checking if /home/redsuser/Desktop/reptar_soft/src/buildroot-rootfs-qt-xeno/host/usr/bin/arm-linux-gnueabihf-gcc static flag -static works
configure:8616: result: yes
configure:8631: checking if /home/redsuser/Desktop/reptar_soft/src/buildroot-rootfs-qt-xeno/host/usr/bin/arm-linux-gnueabihf-gcc supports -c -o file.o
configure:8652: /home/redsuser/Desktop/reptar_soft/src/buildroot-rootfs-qt-xeno/host/usr/bin/arm-linux-gnueabihf-gcc -c -D_LARGEFILE_SOURCE -D_LARGEFILE64_SOURCE -D_FILE_OFFSET_BITS=64  -O3  -D_LARGEFILE_SOURCE -D_LARGEFILE64_SOURCE -D_FILE_OFFSET_BITS=64 -o out/conftest2.o conftest.c >&5
configure:8656: $? = 0
configure:8678: result: yes
configure:8686: checking if /home/redsuser/Desktop/reptar_soft/src/buildroot-rootfs-qt-xeno/host/usr/bin/arm-linux-gnueabihf-gcc supports -c -o file.o
configure:8733: result: yes
configure:8766: checking whether the /home/redsuser/Desktop/reptar_soft/src/buildroot-rootfs-qt-xeno/host/usr/bin/arm-linux-gnueabihf-gcc linker (/home/redsuser/Desktop/reptar_soft/src/buildroot-rootfs-qt-xeno/host/usr/bin/arm-linux-gnueabihf-ld) supports shared libraries
configure:9919: result: yes
configure:9956: checking whether -lc should be explicitly linked in
configure:9964: /home/redsuser/Desktop/reptar_soft/src/buildroot-rootfs-qt-xeno/host/usr/bin/arm-linux-gnueabihf-gcc -c -D_LARGEFILE_SOURCE -D_LARGEFILE64_SOURCE -D_FILE_OFFSET_BITS=64  -O3  -D_LARGEFILE_SOURCE -D_LARGEFILE64_SOURCE -D_FILE_OFFSET_BITS=64 conftest.c >&5
configure:9967: $? = 0
configure:9982: /home/redsuser/Desktop/reptar_soft/src/buildroot-rootfs-qt-xeno/host/usr/bin/arm-linux-gnueabihf-gcc -shared  -fPIC -DPIC conftest.o  -v -Wl,-soname -Wl,conftest -o conftest 2\>\&1 \| /bin/grep  -lc  \>/dev/null 2\>\&1
configure:9985: $? = 0
configure:9999: result: no
configure:10159: checking dynamic linker characteristics
configure:10670: /home/redsuser/Desktop/reptar_soft/src/buildroot-rootfs-qt-xeno/host/usr/bin/arm-linux-gnueabihf-gcc -o conftest -D_LARGEFILE_SOURCE -D_LARGEFILE64_SOURCE -D_FILE_OFFSET_BITS=64  -O3  -D_LARGEFILE_SOURCE -D_LARGEFILE64_SOURCE -D_FILE_OFFSET_BITS=64  -Wl,-rpath -Wl,/foo conftest.c  >&5
configure:10670: $? = 0
configure:10896: result: GNU/Linux ld.so
configure:11003: checking how to hardcode library paths into programs
configure:11028: result: immediate
configure:11568: checking whether stripping libraries is possible
configure:11573: result: yes
configure:11608: checking if libtool supports shared libraries
configure:11610: result: yes
configure:11613: checking whether to build shared libraries
configure:11634: result: yes
configure:11637: checking whether to build static libraries
configure:11641: result: no
configure:11681: checking for arm-buildroot-linux-gnueabihf-windres
configure:11711: result: no
configure:11721: checking for windres
configure:11751: result: no
configure:11855: checking for inline
configure:11871: /home/redsuser/Desktop/reptar_soft/src/buildroot-rootfs-qt-xeno/host/usr/bin/arm-linux-gnueabihf-gcc -c -D_LARGEFILE_SOURCE -D_LARGEFILE64_SOURCE -D_FILE_OFFSET_BITS=64  -O3  -D_LARGEFILE_SOURCE -D_LARGEFILE64_SOURCE -D_FILE_OFFSET_BITS=64 conftest.c >&5
configure:11871: $? = 0
configure:11879: result: inline
configure:11904: checking operating system
configure:11919: result: Linux
configure:11966: checking for library containing clock_gettime
configure:11997: /home/redsuser/Desktop/reptar_soft/src/buildroot-rootfs-qt-xeno/host/usr/bin/arm-linux-gnueabihf-gcc -o conftest -D_LARGEFILE_SOURCE -D_LARGEFILE64_SOURCE -D_FILE_OFFSET_BITS=64  -O3  -D_LARGEFILE_SOURCE -D_LARGEFILE64_SOURCE -D_FILE_OFFSET_BITS=64  conftest.c  >&5
configure:11997: $? = 0
configure:12014: result: none required
configure:12033: checking libudev.h usability
configure:12033: /home/redsuser/Desktop/reptar_soft/src/buildroot-rootfs-qt-xeno/host/usr/bin/arm-linux-gnueabihf-gcc -c -D_LARGEFILE_SOURCE -D_LARGEFILE64_SOURCE -D_FILE_OFFSET_BITS=64  -O3  -D_LARGEFILE_SOURCE -D_LARGEFILE64_SOURCE -D_FILE_OFFSET_BITS=64 conftest.c >&5
configure:12033: $? = 0
configure:12033: result: yes
configure:12033: checking libudev.h presence
configure:12033: /home/redsuser/Desktop/reptar_soft/src/buildroot-rootfs-qt-xeno/host/usr/bin/arm-linux-gnueabihf-cpp -D_LARGEFILE_SOURCE -D_LARGEFILE64_SOURCE -D_FILE_OFFSET_BITS=64 conftest.c
configure:12033: $? = 0
configure:12033: result: yes
configure:12033: checking for libudev.h
configure:12033: result: yes
configure:12045: checking for udev_new in -ludev
configure:12070: /home/redsuser/Desktop/reptar_soft/src/buildroot-rootfs-qt-xeno/host/usr/bin/arm-linux-gnueabihf-gcc -o conftest -D_LARGEFILE_SOURCE -D_LARGEFILE64_SOURCE -D_FILE_OFFSET_BITS=64  -O3  -D_LARGEFILE_SOURCE -D_LARGEFILE64_SOURCE -D_FILE_OFFSET_BITS=64  conftest.c -ludev   >&5
configure:12070: $? = 0
configure:12079: result: yes
configure:12150: checking poll.h usability
configure:12150: /home/redsuser/Desktop/reptar_soft/src/buildroot-rootfs-qt-xeno/host/usr/bin/arm-linux-gnueabihf-gcc -c -D_LARGEFILE_SOURCE -D_LARGEFILE64_SOURCE -D_FILE_OFFSET_BITS=64  -O3  -D_LARGEFILE_SOURCE -D_LARGEFILE64_SOURCE -D_FILE_OFFSET_BITS=64 conftest.c >&5
configure:12150: $? = 0
configure:12150: result: yes
configure:12150: checking poll.h presence
configure:12150: /home/redsuser/Desktop/reptar_soft/src/buildroot-rootfs-qt-xeno/host/usr/bin/arm-linux-gnueabihf-cpp -D_LARGEFILE_SOURCE -D_LARGEFILE64_SOURCE -D_FILE_OFFSET_BITS=64 conftest.c
configure:12150: $? = 0
configure:12150: result: yes
configure:12150: checking for poll.h
configure:12150: result: yes
configure:12328: checking sys/timerfd.h usability
configure:12328: /home/redsuser/Desktop/reptar_soft/src/buildroot-rootfs-qt-xeno/host/usr/bin/arm-linux-gnueabihf-gcc -c -D_LARGEFILE_SOURCE -D_LARGEFILE64_SOURCE -D_FILE_OFFSET_BITS=64  -O3  -D_LARGEFILE_SOURCE -D_LARGEFILE64_SOURCE -D_FILE_OFFSET_BITS=64 conftest.c >&5
configure:12328: $? = 0
configure:12328: result: yes
configure:12328: checking sys/timerfd.h presence
configure:12328: /home/redsuser/Desktop/reptar_soft/src/buildroot-rootfs-qt-xeno/host/usr/bin/arm-linux-gnueabihf-cpp -D_LARGEFILE_SOURCE -D_LARGEFILE64_SOURCE -D_FILE_OFFSET_BITS=64 conftest.c
configure:12328: $? = 0
configure:12328: result: yes
configure:12328: checking for sys/timerfd.h
configure:12328: result: yes
configure:12348: checking whether TFD_NONBLOCK is declared
configure:12348: /home/redsuser/Desktop/reptar_soft/src/buildroot-rootfs-qt-xeno/host/usr/bin/arm-linux-gnueabihf-gcc -c -D_LARGEFILE_SOURCE -D_LARGEFILE64_SOURCE -D_FILE_OFFSET_BITS=64  -O3  -D_LARGEFILE_SOURCE -D_LARGEFILE64_SOURCE -D_FILE_OFFSET_BITS=64 conftest.c >&5
configure:12348: $? = 0
configure:12348: result: yes
configure:12360: checking whether to use timerfd for timing
configure:12367: result: yes
configure:12378: checking for struct timespec
configure:12378: /home/redsuser/Desktop/reptar_soft/src/buildroot-rootfs-qt-xeno/host/usr/bin/arm-linux-gnueabihf-gcc -c -D_LARGEFILE_SOURCE -D_LARGEFILE64_SOURCE -D_FILE_OFFSET_BITS=64  -O3  -D_LARGEFILE_SOURCE -D_LARGEFILE64_SOURCE -D_FILE_OFFSET_BITS=64 conftest.c >&5
configure:12378: $? = 0
configure:12378: /home/redsuser/Desktop/reptar_soft/src/buildroot-rootfs-qt-xeno/host/usr/bin/arm-linux-gnueabihf-gcc -c -D_LARGEFILE_SOURCE -D_LARGEFILE64_SOURCE -D_FILE_OFFSET_BITS=64  -O3  -D_LARGEFILE_SOURCE -D_LARGEFILE64_SOURCE -D_FILE_OFFSET_BITS=64 conftest.c >&5
conftest.c: In function 'main':
conftest.c:68:30: error: expected expression before ')' token
 if (sizeof ((struct timespec)))
                              ^
configure:12378: $? = 1
configure: failed program was:
| /* confdefs.h */
| #define PACKAGE_NAME "libusb"
| #define PACKAGE_TARNAME "libusb"
| #define PACKAGE_VERSION "1.0.19"
| #define PACKAGE_STRING "libusb 1.0.19"
| #define PACKAGE_BUGREPORT "libusb-devel@lists.sourceforge.net"
| #define PACKAGE_URL "http://libusb.info"
| #define PACKAGE "libusb"
| #define VERSION "1.0.19"
| #define STDC_HEADERS 1
| #define HAVE_SYS_TYPES_H 1
| #define HAVE_SYS_STAT_H 1
| #define HAVE_STDLIB_H 1
| #define HAVE_STRING_H 1
| #define HAVE_MEMORY_H 1
| #define HAVE_STRINGS_H 1
| #define HAVE_INTTYPES_H 1
| #define HAVE_STDINT_H 1
| #define HAVE_UNISTD_H 1
| #define HAVE_DLFCN_H 1
| #define LT_OBJDIR ".libs/"
| #define _GNU_SOURCE 1
| #define OS_LINUX 1
| #define HAVE_LIBUDEV_H 1
| #define HAVE_LIBUDEV 1
| #define USE_UDEV 1
| #define HAVE_POLL_H 1
| #define POLL_NFDS_TYPE nfds_t
| #define THREADS_POSIX 1
| #define USBI_TIMERFD_AVAILABLE 1
| /* end confdefs.h.  */
| #include <stdio.h>
| #ifdef HAVE_SYS_TYPES_H
| # include <sys/types.h>
| #endif
| #ifdef HAVE_SYS_STAT_H
| # include <sys/stat.h>
| #endif
| #ifdef STDC_HEADERS
| # include <stdlib.h>
| # include <stddef.h>
| #else
| # ifdef HAVE_STDLIB_H
| #  include <stdlib.h>
| # endif
| #endif
| #ifdef HAVE_STRING_H
| # if !defined STDC_HEADERS && defined HAVE_MEMORY_H
| #  include <memory.h>
| # endif
| # include <string.h>
| #endif
| #ifdef HAVE_STRINGS_H
| # include <strings.h>
| #endif
| #ifdef HAVE_INTTYPES_H
| # include <inttypes.h>
| #endif
| #ifdef HAVE_STDINT_H
| # include <stdint.h>
| #endif
| #ifdef HAVE_UNISTD_H
| # include <unistd.h>
| #endif
| int
| main ()
| {
| if (sizeof ((struct timespec)))
| 	    return 0;
|   ;
|   return 0;
| }
configure:12378: result: yes
configure:12432: checking syslog.h usability
configure:12432: /home/redsuser/Desktop/reptar_soft/src/buildroot-rootfs-qt-xeno/host/usr/bin/arm-linux-gnueabihf-gcc -c -D_LARGEFILE_SOURCE -D_LARGEFILE64_SOURCE -D_FILE_OFFSET_BITS=64  -O3  -D_LARGEFILE_SOURCE -D_LARGEFILE64_SOURCE -D_FILE_OFFSET_BITS=64 conftest.c >&5
configure:12432: $? = 0
configure:12432: result: yes
configure:12432: checking syslog.h presence
configure:12432: /home/redsuser/Desktop/reptar_soft/src/buildroot-rootfs-qt-xeno/host/usr/bin/arm-linux-gnueabihf-cpp -D_LARGEFILE_SOURCE -D_LARGEFILE64_SOURCE -D_FILE_OFFSET_BITS=64 conftest.c
configure:12432: $? = 0
configure:12432: result: yes
configure:12432: checking for syslog.h
configure:12432: result: yes
configure:12442: checking for syslog
configure:12442: /home/redsuser/Desktop/reptar_soft/src/buildroot-rootfs-qt-xeno/host/usr/bin/arm-linux-gnueabihf-gcc -o conftest -D_LARGEFILE_SOURCE -D_LARGEFILE64_SOURCE -D_FILE_OFFSET_BITS=64  -O3  -D_LARGEFILE_SOURCE -D_LARGEFILE64_SOURCE -D_FILE_OFFSET_BITS=64  conftest.c -ludev  -pthread >&5
configure:12442: $? = 0
configure:12442: result: yes
configure:12504: /home/redsuser/Desktop/reptar_soft/src/buildroot-rootfs-qt-xeno/host/usr/bin/arm-linux-gnueabihf-gcc -c -D_LARGEFILE_SOURCE -D_LARGEFILE64_SOURCE -D_FILE_OFFSET_BITS=64  -O3  -Werror -fvisibility=hidden -D_LARGEFILE_SOURCE -D_LARGEFILE64_SOURCE -D_FILE_OFFSET_BITS=64 conftest.c >&5
configure:12504: $? = 0
configure:12532: /home/redsuser/Desktop/reptar_soft/src/buildroot-rootfs-qt-xeno/host/usr/bin/arm-linux-gnueabihf-gcc -c -D_LARGEFILE_SOURCE -D_LARGEFILE64_SOURCE -D_FILE_OFFSET_BITS=64  -O3  -Wno-pointer-sign -D_LARGEFILE_SOURCE -D_LARGEFILE64_SOURCE -D_FILE_OFFSET_BITS=64 conftest.c >&5
configure:12532: $? = 0
configure:12541: checking for sigaction
configure:12541: /home/redsuser/Desktop/reptar_soft/src/buildroot-rootfs-qt-xeno/host/usr/bin/arm-linux-gnueabihf-gcc -o conftest -D_LARGEFILE_SOURCE -D_LARGEFILE64_SOURCE -D_FILE_OFFSET_BITS=64  -O3  -D_LARGEFILE_SOURCE -D_LARGEFILE64_SOURCE -D_FILE_OFFSET_BITS=64  conftest.c -ludev  -pthread >&5
configure:12541: $? = 0
configure:12541: result: yes
configure:12560: checking sys/time.h usability
configure:12560: /home/redsuser/Desktop/reptar_soft/src/buildroot-rootfs-qt-xeno/host/usr/bin/arm-linux-gnueabihf-gcc -c -D_LARGEFILE_SOURCE -D_LARGEFILE64_SOURCE -D_FILE_OFFSET_BITS=64  -O3  -D_LARGEFILE_SOURCE -D_LARGEFILE64_SOURCE -D_FILE_OFFSET_BITS=64 conftest.c >&5
configure:12560: $? = 0
configure:12560: result: yes
configure:12560: checking sys/time.h presence
configure:12560: /home/redsuser/Desktop/reptar_soft/src/buildroot-rootfs-qt-xeno/host/usr/bin/arm-linux-gnueabihf-cpp -D_LARGEFILE_SOURCE -D_LARGEFILE64_SOURCE -D_FILE_OFFSET_BITS=64 conftest.c
configure:12560: $? = 0
configure:12560: result: yes
configure:12560: checking for sys/time.h
configure:12560: result: yes
configure:12572: checking for gettimeofday
configure:12572: /home/redsuser/Desktop/reptar_soft/src/buildroot-rootfs-qt-xeno/host/usr/bin/arm-linux-gnueabihf-gcc -o conftest -D_LARGEFILE_SOURCE -D_LARGEFILE64_SOURCE -D_FILE_OFFSET_BITS=64  -O3  -D_LARGEFILE_SOURCE -D_LARGEFILE64_SOURCE -D_FILE_OFFSET_BITS=64  conftest.c -ludev  -pthread >&5
configure:12572: $? = 0
configure:12572: result: yes
configure:12583: checking signal.h usability
configure:12583: /home/redsuser/Desktop/reptar_soft/src/buildroot-rootfs-qt-xeno/host/usr/bin/arm-linux-gnueabihf-gcc -c -D_LARGEFILE_SOURCE -D_LARGEFILE64_SOURCE -D_FILE_OFFSET_BITS=64  -O3  -D_LARGEFILE_SOURCE -D_LARGEFILE64_SOURCE -D_FILE_OFFSET_BITS=64 conftest.c >&5
configure:12583: $? = 0
configure:12583: result: yes
configure:12583: checking signal.h presence
configure:12583: /home/redsuser/Desktop/reptar_soft/src/buildroot-rootfs-qt-xeno/host/usr/bin/arm-linux-gnueabihf-cpp -D_LARGEFILE_SOURCE -D_LARGEFILE64_SOURCE -D_FILE_OFFSET_BITS=64 conftest.c
configure:12583: $? = 0
configure:12583: result: yes
configure:12583: checking for signal.h
configure:12583: result: yes
configure:12722: checking that generated files are newer than configure
configure:12728: result: done
configure:12799: creating ./config.status

## ---------------------- ##
## Running config.status. ##
## ---------------------- ##

This file was extended by libusb config.status 1.0.19, which was
generated by GNU Autoconf 2.69.  Invocation command line was

  CONFIG_FILES    = 
  CONFIG_HEADERS  = 
  CONFIG_LINKS    = 
  CONFIG_COMMANDS = 
  $ ./config.status 

on a07b-pc

config.status:1182: creating libusb-1.0.pc
config.status:1182: creating Makefile
config.status:1182: creating libusb/Makefile
config.status:1182: creating examples/Makefile
config.status:1182: creating tests/Makefile
config.status:1182: creating doc/Makefile
config.status:1182: creating doc/doxygen.cfg
config.status:1182: creating config.h
config.status:1411: executing depfiles commands
config.status:1411: executing libtool commands
configure:15239: WARNING: unrecognized options: --disable-gtk-doc, --disable-gtk-doc-html, --disable-doc, --disable-docs, --disable-documentation, --with-xmlto, --with-fop, --enable-ipv6

## ---------------- ##
## Cache variables. ##
## ---------------- ##

ac_cv_build=x86_64-unknown-linux-gnu
ac_cv_c_bigendian=no
ac_cv_c_compiler_gnu=yes
ac_cv_c_inline=inline
ac_cv_env_CC_set=set
ac_cv_env_CC_value=/home/redsuser/Desktop/reptar_soft/src/buildroot-rootfs-qt-xeno/host/usr/bin/arm-linux-gnueabihf-gcc
ac_cv_env_CFLAGS_set=set
ac_cv_env_CFLAGS_value='-D_LARGEFILE_SOURCE -D_LARGEFILE64_SOURCE -D_FILE_OFFSET_BITS=64  -O3 '
ac_cv_env_CPPFLAGS_set=set
ac_cv_env_CPPFLAGS_value='-D_LARGEFILE_SOURCE -D_LARGEFILE64_SOURCE -D_FILE_OFFSET_BITS=64'
ac_cv_env_CPP_set=set
ac_cv_env_CPP_value=/home/redsuser/Desktop/reptar_soft/src/buildroot-rootfs-qt-xeno/host/usr/bin/arm-linux-gnueabihf-cpp
ac_cv_env_LDFLAGS_set=set
ac_cv_env_LDFLAGS_value=
ac_cv_env_LIBS_set=
ac_cv_env_LIBS_value=
ac_cv_env_build_alias_set=set
ac_cv_env_build_alias_value=x86_64-unknown-linux-gnu
ac_cv_env_host_alias_set=set
ac_cv_env_host_alias_value=arm-buildroot-linux-gnueabihf
ac_cv_env_target_alias_set=set
ac_cv_env_target_alias_value=arm-buildroot-linux-gnueabihf
ac_cv_func_calloc_0_nonnull=yes
ac_cv_func_gettimeofday=yes
ac_cv_func_malloc_0_nonnull=yes
ac_cv_func_memcmp_working=yes
ac_cv_func_mmap_fixed_mapped=yes
ac_cv_func_realloc_0_nonnull=yes
ac_cv_func_sigaction=yes
ac_cv_func_syslog=yes
ac_cv_have_decl_TFD_NONBLOCK=yes
ac_cv_have_decl_malloc=yes
ac_cv_header_dlfcn_h=yes
ac_cv_header_inttypes_h=yes
ac_cv_header_libudev_h=yes
ac_cv_header_memory_h=yes
ac_cv_header_poll_h=yes
ac_cv_header_signal_h=yes
ac_cv_header_stdc=yes
ac_cv_header_stdint_h=yes
ac_cv_header_stdlib_h=yes
ac_cv_header_string_h=yes
ac_cv_header_strings_h=yes
ac_cv_header_sys_stat_h=yes
ac_cv_header_sys_time_h=yes
ac_cv_header_sys_timerfd_h=yes
ac_cv_header_sys_types_h=yes
ac_cv_header_syslog_h=yes
ac_cv_header_unistd_h=yes
ac_cv_host=arm-buildroot-linux-gnueabihf
ac_cv_lbl_unaligned_fail=yes
ac_cv_lib_udev_udev_new=yes
ac_cv_objext=o
ac_cv_path_EGREP='/bin/grep -E'
ac_cv_path_FGREP='/bin/grep -F'
ac_cv_path_GREP=/bin/grep
ac_cv_path_SED=/bin/sed
ac_cv_path_install='/usr/bin/install -c'
ac_cv_path_mkdir=/bin/mkdir
ac_cv_prog_AR=/home/redsuser/Desktop/reptar_soft/src/buildroot-rootfs-qt-xeno/host/usr/bin/arm-linux-gnueabihf-ar
ac_cv_prog_AWK=mawk
ac_cv_prog_CC=/home/redsuser/Desktop/reptar_soft/src/buildroot-rootfs-qt-xeno/host/usr/bin/arm-linux-gnueabihf-gcc
ac_cv_prog_CPP=/home/redsuser/Desktop/reptar_soft/src/buildroot-rootfs-qt-xeno/host/usr/bin/arm-linux-gnueabihf-cpp
ac_cv_prog_OBJDUMP=/home/redsuser/Desktop/reptar_soft/src/buildroot-rootfs-qt-xeno/host/usr/bin/arm-linux-gnueabihf-objdump
ac_cv_prog_RANLIB=/home/redsuser/Desktop/reptar_soft/src/buildroot-rootfs-qt-xeno/host/usr/bin/arm-linux-gnueabihf-ranlib
ac_cv_prog_STRIP=/home/redsuser/Desktop/reptar_soft/src/buildroot-rootfs-qt-xeno/host/usr/bin/arm-linux-gnueabihf-strip
ac_cv_prog_ac_ct_MANIFEST_TOOL=mt
ac_cv_prog_cc_c89=
ac_cv_prog_cc_g=yes
ac_cv_prog_make_make_set=yes
ac_cv_search_clock_gettime='none required'
ac_cv_type_struct_timespec=yes
am_cv_CC_dependencies_compiler_type=none
am_cv_make_support_nested_variables=yes
am_cv_prog_cc_c_o=yes
gl_cv_func_malloc_0_nonnull=yes
lt_cv_ar_at_file=@
lt_cv_archive_cmds_need_lc=no
lt_cv_deplibs_check_method=pass_all
lt_cv_file_magic_cmd='$MAGIC_CMD'
lt_cv_file_magic_test_file=
lt_cv_ld_reload_flag=-r
lt_cv_nm_interface='BSD nm'
lt_cv_objdir=.libs
lt_cv_path_LD=/home/redsuser/Desktop/reptar_soft/src/buildroot-rootfs-qt-xeno/host/usr/bin/arm-linux-gnueabihf-ld
lt_cv_path_NM=/home/redsuser/Desktop/reptar_soft/src/buildroot-rootfs-qt-xeno/host/usr/bin/arm-linux-gnueabihf-nm
lt_cv_path_mainfest_tool=no
lt_cv_prog_compiler_c_o=yes
lt_cv_prog_compiler_c_o_RC=yes
lt_cv_prog_compiler_pic='-fPIC -DPIC'
lt_cv_prog_compiler_pic_works=yes
lt_cv_prog_compiler_rtti_exceptions=no
lt_cv_prog_compiler_static_works=yes
lt_cv_prog_gnu_ld=yes
lt_cv_sharedlib_from_linklib_cmd='printf %s\n'
lt_cv_shlibpath_overrides_runpath=no
lt_cv_sys_global_symbol_pipe='sed -n -e '\''s/^.*[	 ]\([ABCDGIRSTW][ABCDGIRSTW]*\)[	 ][	 ]*\([_A-Za-z][_A-Za-z0-9]*\)$/\1 \2 \2/p'\'' | sed '\''/ __gnu_lto/d'\'''
lt_cv_sys_global_symbol_to_c_name_address='sed -n -e '\''s/^: \([^ ]*\)[ ]*$/  {\"\1\", (void *) 0},/p'\'' -e '\''s/^[ABCDGIRSTW]* \([^ ]*\) \([^ ]*\)$/  {"\2", (void *) \&\2},/p'\'''
lt_cv_sys_global_symbol_to_c_name_address_lib_prefix='sed -n -e '\''s/^: \([^ ]*\)[ ]*$/  {\"\1\", (void *) 0},/p'\'' -e '\''s/^[ABCDGIRSTW]* \([^ ]*\) \(lib[^ ]*\)$/  {"\2", (void *) \&\2},/p'\'' -e '\''s/^[ABCDGIRSTW]* \([^ ]*\) \([^ ]*\)$/  {"lib\2", (void *) \&\2},/p'\'''
lt_cv_sys_global_symbol_to_cdecl='sed -n -e '\''s/^T .* \(.*\)$/extern int \1();/p'\'' -e '\''s/^[ABCDGIRSTW]* .* \(.*\)$/extern char \1;/p'\'''
lt_cv_sys_lib_search_path_spec=
lt_cv_sys_max_cmd_len=3458764513820540925
lt_cv_to_host_file_cmd=func_convert_file_noop
lt_cv_to_tool_file_cmd=func_convert_file_noop

## ----------------- ##
## Output variables. ##
## ----------------- ##

ACLOCAL='${SHELL} /home/redsuser/Desktop/reptar_soft/src/buildroot-rootfs-qt-xeno/build/libusb-1.0.19/missing aclocal-1.14'
AMDEPBACKSLASH=''
AMDEP_FALSE=''
AMDEP_TRUE='#'
AMTAR='$${TAR-tar}'
AM_BACKSLASH='\'
AM_CFLAGS=' -std=gnu99 -Wall -Wundef -Wunused -Wstrict-prototypes -Werror-implicit-function-declaration -Wno-pointer-sign -Wshadow -pthread -fvisibility=hidden'
AM_DEFAULT_V='$(AM_DEFAULT_VERBOSITY)'
AM_DEFAULT_VERBOSITY='0'
AM_V='$(V)'
AR='/home/redsuser/Desktop/reptar_soft/src/buildroot-rootfs-qt-xeno/host/usr/bin/arm-linux-gnueabihf-ar'
AUTOCONF='${SHELL} /home/redsuser/Desktop/reptar_soft/src/buildroot-rootfs-qt-xeno/build/libusb-1.0.19/missing autoconf'
AUTOHEADER='${SHELL} /home/redsuser/Desktop/reptar_soft/src/buildroot-rootfs-qt-xeno/build/libusb-1.0.19/missing autoheader'
AUTOMAKE='${SHELL} /home/redsuser/Desktop/reptar_soft/src/buildroot-rootfs-qt-xeno/build/libusb-1.0.19/missing automake-1.14'
AWK='mawk'
BUILD_EXAMPLES_FALSE=''
BUILD_EXAMPLES_TRUE='#'
BUILD_TESTS_FALSE=''
BUILD_TESTS_TRUE='#'
CC='/home/redsuser/Desktop/reptar_soft/src/buildroot-rootfs-qt-xeno/host/usr/bin/arm-linux-gnueabihf-gcc'
CCDEPMODE='depmode=none'
CFLAGS='-D_LARGEFILE_SOURCE -D_LARGEFILE64_SOURCE -D_FILE_OFFSET_BITS=64  -O3 '
CPP='/home/redsuser/Desktop/reptar_soft/src/buildroot-rootfs-qt-xeno/host/usr/bin/arm-linux-gnueabihf-cpp'
CPPFLAGS='-D_LARGEFILE_SOURCE -D_LARGEFILE64_SOURCE -D_FILE_OFFSET_BITS=64'
CREATE_IMPORT_LIB_FALSE=''
CREATE_IMPORT_LIB_TRUE='#'
CYGPATH_W='echo'
DEFS='-DHAVE_CONFIG_H'
DEPDIR='.deps'
DLLTOOL='false'
DSYMUTIL=''
DUMPBIN=''
ECHO_C=''
ECHO_N='-n'
ECHO_T=''
EGREP='/bin/grep -E'
EXEEXT=''
FGREP='/bin/grep -F'
GREP='/bin/grep'
HAVE_SIGACTION_FALSE='#'
HAVE_SIGACTION_TRUE=''
INSTALL_DATA='${INSTALL} -m 644'
INSTALL_PROGRAM='${INSTALL}'
INSTALL_SCRIPT='${INSTALL}'
INSTALL_STRIP_PROGRAM='$(install_sh) -c -s'
LD='/home/redsuser/Desktop/reptar_soft/src/buildroot-rootfs-qt-xeno/host/usr/bin/arm-linux-gnueabihf-ld'
LDFLAGS=''
LIBOBJS=''
LIBS='-ludev  -pthread'
LIBTOOL='$(SHELL) $(top_builddir)/libtool'
LIPO=''
LN_S='ln -s'
LTLDFLAGS='-version-info 1:0:1 -no-undefined'
LTLIBOBJS=''
MAINT='#'
MAINTAINER_MODE_FALSE=''
MAINTAINER_MODE_TRUE='#'
MAKEINFO='${SHELL} /home/redsuser/Desktop/reptar_soft/src/buildroot-rootfs-qt-xeno/build/libusb-1.0.19/missing makeinfo'
MANIFEST_TOOL=':'
MKDIR_P='/bin/mkdir -p'
NM='/home/redsuser/Desktop/reptar_soft/src/buildroot-rootfs-qt-xeno/host/usr/bin/arm-linux-gnueabihf-nm'
NMEDIT=''
OBJDUMP='/home/redsuser/Desktop/reptar_soft/src/buildroot-rootfs-qt-xeno/host/usr/bin/arm-linux-gnueabihf-objdump'
OBJEXT='o'
OS_DARWIN=''
OS_DARWIN_FALSE=''
OS_DARWIN_TRUE='#'
OS_LINUX=''
OS_LINUX_FALSE='#'
OS_LINUX_TRUE=''
OS_NETBSD=''
OS_NETBSD_FALSE=''
OS_NETBSD_TRUE='#'
OS_OPENBSD=''
OS_OPENBSD_FALSE=''
OS_OPENBSD_TRUE='#'
OS_WINDOWS=''
OS_WINDOWS_FALSE=''
OS_WINDOWS_TRUE='#'
OTOOL64=''
OTOOL=''
PACKAGE='libusb'
PACKAGE_BUGREPORT='libusb-devel@lists.sourceforge.net'
PACKAGE_NAME='libusb'
PACKAGE_STRING='libusb 1.0.19'
PACKAGE_TARNAME='libusb'
PACKAGE_URL='http://libusb.info'
PACKAGE_VERSION='1.0.19'
PATH_SEPARATOR=':'
RANLIB='/home/redsuser/Desktop/reptar_soft/src/buildroot-rootfs-qt-xeno/host/usr/bin/arm-linux-gnueabihf-ranlib'
RC=''
SED='/bin/sed'
SET_MAKE=''
SHELL='/bin/bash'
STRIP='/home/redsuser/Desktop/reptar_soft/src/buildroot-rootfs-qt-xeno/host/usr/bin/arm-linux-gnueabihf-strip'
THREADS_POSIX_FALSE='#'
THREADS_POSIX_TRUE=''
USE_UDEV=''
USE_UDEV_FALSE='#'
USE_UDEV_TRUE=''
VERSION='1.0.19'
ac_ct_AR=''
ac_ct_CC=''
ac_ct_DUMPBIN=''
am__EXEEXT_FALSE=''
am__EXEEXT_TRUE='#'
am__fastdepCC_FALSE=''
am__fastdepCC_TRUE='#'
am__include='include'
am__isrc=''
am__leading_dot='.'
am__nodep=''
am__quote=''
am__tar='$${TAR-tar} chof - "$$tardir"'
am__untar='$${TAR-tar} xf -'
bindir='${exec_prefix}/bin'
build='x86_64-unknown-linux-gnu'
build_alias='x86_64-unknown-linux-gnu'
build_cpu='x86_64'
build_os='linux-gnu'
build_vendor='unknown'
datadir='${datarootdir}'
datarootdir='${prefix}/share'
docdir='${datarootdir}/doc/${PACKAGE_TARNAME}'
dvidir='${docdir}'
exec_prefix='/usr'
host='arm-buildroot-linux-gnueabihf'
host_alias='arm-buildroot-linux-gnueabihf'
host_cpu='arm'
host_os='linux-gnueabihf'
host_vendor='buildroot'
htmldir='${docdir}'
includedir='${prefix}/include'
infodir='${datarootdir}/info'
install_sh='${SHELL} /home/redsuser/Desktop/reptar_soft/src/buildroot-rootfs-qt-xeno/build/libusb-1.0.19/install-sh'
libdir='${exec_prefix}/lib'
libexecdir='${exec_prefix}/libexec'
localedir='${datarootdir}/locale'
localstatedir='/var'
mandir='${datarootdir}/man'
mkdir_p='$(MKDIR_P)'
oldincludedir='/usr/include'
pdfdir='${docdir}'
prefix='/usr'
program_transform_name='s&^&&'
psdir='${docdir}'
sbindir='${exec_prefix}/sbin'
sharedstatedir='${prefix}/com'
sysconfdir='/etc'
target_alias='arm-buildroot-linux-gnueabihf'

## ----------- ##
## confdefs.h. ##
## ----------- ##

/* confdefs.h */
#define PACKAGE_NAME "libusb"
#define PACKAGE_TARNAME "libusb"
#define PACKAGE_VERSION "1.0.19"
#define PACKAGE_STRING "libusb 1.0.19"
#define PACKAGE_BUGREPORT "libusb-devel@lists.sourceforge.net"
#define PACKAGE_URL "http://libusb.info"
#define PACKAGE "libusb"
#define VERSION "1.0.19"
#define STDC_HEADERS 1
#define HAVE_SYS_TYPES_H 1
#define HAVE_SYS_STAT_H 1
#define HAVE_STDLIB_H 1
#define HAVE_STRING_H 1
#define HAVE_MEMORY_H 1
#define HAVE_STRINGS_H 1
#define HAVE_INTTYPES_H 1
#define HAVE_STDINT_H 1
#define HAVE_UNISTD_H 1
#define HAVE_DLFCN_H 1
#define LT_OBJDIR ".libs/"
#define _GNU_SOURCE 1
#define OS_LINUX 1
#define HAVE_LIBUDEV_H 1
#define HAVE_LIBUDEV 1
#define USE_UDEV 1
#define HAVE_POLL_H 1
#define POLL_NFDS_TYPE nfds_t
#define THREADS_POSIX 1
#define USBI_TIMERFD_AVAILABLE 1
#define HAVE_STRUCT_TIMESPEC 1
#define ENABLE_LOGGING 1
#define HAVE_SYSLOG_H 1
#define HAVE_SYSLOG_FUNC 1
#define DEFAULT_VISIBILITY __attribute__((visibility("default")))
#define HAVE_SYS_TIME_H 1
#define HAVE_GETTIMEOFDAY 1
#define HAVE_SIGNAL_H 1

configure: exit 0
